{
  "prepare_queue": {
    "installed": [],
    "uninstalled": []
  },
  "config_munge": {
    "files": {}
  },
  "installed_plugins": {
    "cordova-android-support-gradle-release": {
      "ANDROID_SUPPORT_VERSION": "27.+",
      "PACKAGE_NAME": "br.com.letsmeet"
    },
    "cordova-plugin-crosswalk-webview": {
      "XWALK_VERSION": "22+",
      "XWALK_LITEVERSION": "xwalk_core_library_canary:17+",
      "XWALK_COMMANDLINE": "--disable-pull-to-refresh-effect",
      "XWALK_MODE": "embedded",
      "XWALK_MULTIPLEAPK": "true",
      "PACKAGE_NAME": "br.com.letsmeet"
    },
    "cordova-plugin-device": {
      "PACKAGE_NAME": "br.com.letsmeet"
    },
    "cordova-plugin-geolocation": {
      "PACKAGE_NAME": "br.com.letsmeet"
    },
    "cordova-plugin-googlemaps": {
      "API_KEY_FOR_ANDROID": "AIzaSyAC15fF2Zejxvnk3o4UZHgdTrhSexfZATM",
      "PLAY_SERVICES_VERSION": "15.0.1",
      "ANDROID_SUPPORT_V4_VERSION": "26.1.0",
      "PACKAGE_NAME": "br.com.letsmeet"
    },
    "cordova-plugin-headercolor": {
      "PACKAGE_NAME": "br.com.letsmeet"
    },
    "cordova-plugin-inappbrowser": {
      "PACKAGE_NAME": "br.com.letsmeet"
    },
    "cordova-plugin-ionic-keyboard": {
      "PACKAGE_NAME": "br.com.letsmeet"
    },
    "cordova-plugin-ionic-webview": {
      "PACKAGE_NAME": "br.com.letsmeet"
    },
    "cordova-plugin-splashscreen": {
      "PACKAGE_NAME": "br.com.letsmeet"
    },
    "cordova-plugin-statusbar": {
      "PACKAGE_NAME": "br.com.letsmeet"
    },
    "cordova-plugin-whitelist": {
      "PACKAGE_NAME": "br.com.letsmeet"
    }
  },
  "dependent_plugins": {}
}